Übungen
…
Lösung

# Tidyverse laden
library(tidyverse)

# Datei einlesen
d <- read_csv("data/Weg_Kx.csv")

Probieren Sie nun aus, was passiert, wenn Sie einfach d in die Kommandozeile eingeben. Sie sehen, dass der Dataframe nun eine besondere Art von Dataframe ist, ein sog. Tibble:

d

Output anzeigen

# A tibble: 27 × 11
   Verb   KorE  `Lexikalischer Frame` Schwierigkeit   No. Date               
   <chr>  <chr> <chr>                 <chr>         <dbl> <dttm>             
 1 bahnen Pfad  Motion                x                 1 2000-01-01 00:00:00
 2 bahnen Weg   Motion                x                 2 2000-01-05 00:00:00
 3 bahnen Weg   Motion                c                 5 2000-02-10 00:00:00
 4 bahnen Weg   Motion                x                 7 2000-01-27 00:00:00
 5 bahnen Weg   Motion                cx                8 2000-02-07 00:00:00
 6 bahnen Weg   Motion                x                11 2000-03-09 00:00:00
 7 bahnen Weg   Motion                c                14 2000-03-16 00:00:00
 8 bahnen Weg   Motion                x                15 2002-01-01 00:00:00
 9 bahnen Weg   Motion                x                15 2000-03-23 00:00:00
10 bahnen Weg   Motion                x                18 2003-01-01 00:00:00
# ℹ 17 more rows
# ℹ 5 more variables: Genre <chr>, Bibl <chr>, ContextBefore <chr>, Hit <chr>,
#   ContextAfter <chr>
…
